<?xml version="1.0" encoding="UTF-8" standalone="no"?>
<svg
   xmlns:dc="http://purl.org/dc/elements/1.1/"
   xmlns:cc="http://creativecommons.org/ns#"
   xmlns:rdf="http://www.w3.org/1999/02/22-rdf-syntax-ns#"
   xmlns:svg="http://www.w3.org/2000/svg"
   xmlns="http://www.w3.org/2000/svg"
   xmlns:xlink="http://www.w3.org/1999/xlink"
   xmlns:sodipodi="http://sodipodi.sourceforge.net/DTD/sodipodi-0.dtd"
   xmlns:inkscape="http://www.inkscape.org/namespaces/inkscape"
   width="29.216297mm"
   height="29.216297mm"
   viewBox="0 0 82.818027 82.818027"
   version="1.2"
   id="svg173"
   sodipodi:docname="FirstOrder.svg"
   inkscape:version="0.92.4 (5da689c313, 2019-01-14)">
  <metadata
     id="metadata177">
    <rdf:RDF>
      <cc:Work
         rdf:about="">
        <dc:format>image/svg+xml</dc:format>
        <dc:type
           rdf:resource="http://purl.org/dc/dcmitype/StillImage" />
      </cc:Work>
    </rdf:RDF>
  </metadata>
  <sodipodi:namedview
     pagecolor="#ffffff"
     bordercolor="#666666"
     borderopacity="1"
     objecttolerance="10"
     gridtolerance="10"
     guidetolerance="10"
     inkscape:pageopacity="0"
     inkscape:pageshadow="2"
     inkscape:window-width="834"
     inkscape:window-height="480"
     id="namedview175"
     showgrid="false"
     inkscape:zoom="0.30360271"
     inkscape:cx="55.878571"
     inkscape:cy="54.545228"
     inkscape:window-x="0"
     inkscape:window-y="27"
     inkscape:window-maximized="0"
     inkscape:current-layer="svg173" />
  <title
     id="title2">OMEdit - OpenModelica Connection Editor</title>
  <desc
     id="desc4">Generated by OMEdit - OpenModelica Connection Editor</desc>
  <defs
     id="defs13">
    <linearGradient
       gradientUnits="userSpaceOnUse"
       x1="0"
       y1="-100"
       x2="0"
       y2="100"
       id="gradient1">
      <stop
         offset="0"
         stop-color="#c8c8c8"
         stop-opacity="1"
         id="stop6" />
      <stop
         offset="0.5"
         stop-color="#f8f8f8"
         stop-opacity="1"
         id="stop8" />
      <stop
         offset="1"
         stop-color="#c8c8c8"
         stop-opacity="1"
         id="stop10" />
    </linearGradient>
    <linearGradient
       inkscape:collect="always"
       xlink:href="#gradient1"
       id="linearGradient179"
       gradientUnits="userSpaceOnUse"
       x1="0"
       y1="-100"
       x2="0"
       y2="100" />
    <linearGradient
       inkscape:collect="always"
       xlink:href="#gradient1"
       id="linearGradient181"
       gradientUnits="userSpaceOnUse"
       x1="0"
       y1="-100"
       x2="0"
       y2="100" />
  </defs>
  <g
     id="g171"
     transform="matrix(0.15,0,0,0.15,-2.2409868,-2.2409868)"
     style="fill:none;fill-rule:evenodd;stroke:#000000;stroke-width:1;stroke-linecap:square;stroke-linejoin:bevel">
    <g
       transform="translate(-127,1)"
       font-size="11"
       font-weight="400"
       font-style="normal"
       id="g15"
       style="font-style:normal;font-weight:400;font-size:11px;font-family:Cantarell;fill:none;stroke:#000000;stroke-width:1;stroke-linecap:square;stroke-linejoin:bevel;stroke-opacity:1" />
    <g
       transform="translate(-127,1)"
       font-size="11"
       font-weight="400"
       font-style="normal"
       id="g17"
       style="font-style:normal;font-weight:400;font-size:11px;font-family:Cantarell;fill:none;stroke:#000000;stroke-width:1;stroke-linecap:square;stroke-linejoin:bevel;stroke-opacity:1" />
    <g
       transform="translate(-127,1)"
       font-size="11"
       font-weight="400"
       font-style="normal"
       id="g19"
       style="font-style:normal;font-weight:400;font-size:11px;font-family:Cantarell;fill:none;stroke:#000000;stroke-width:1;stroke-linecap:square;stroke-linejoin:bevel;stroke-opacity:1" />
    <g
       transform="matrix(2.74762,0,0,-2.74762,291,291)"
       font-size="11"
       font-weight="400"
       font-style="normal"
       id="g21"
       style="font-style:normal;font-weight:400;font-size:11px;font-family:Cantarell;fill:none;stroke:#000000;stroke-width:1;stroke-linecap:square;stroke-linejoin:bevel;stroke-opacity:1" />
    <g
       stroke-miterlimit="2"
       transform="matrix(2.74762,0,0,-2.74762,291,291)"
       font-size="11"
       font-weight="400"
       font-style="normal"
       id="g25"
       style="font-style:normal;font-weight:400;font-size:11px;font-family:Cantarell;fill:url(#linearGradient181);stroke:#c8c8c8;stroke-width:0.94488198;stroke-linecap:square;stroke-linejoin:miter;stroke-miterlimit:2;stroke-opacity:1">
      <path
         d="m -100,-75 c 0,-13.8071 11.1929,-25 25,-25 H 75 c 13.8071,0 25,11.1929 25,25 V 75 c 0,13.8071 -11.1929,25 -25,25 H -75 c -13.8071,0 -25,-11.1929 -25,-25 V -75"
         id="path23"
         style="vector-effect:non-scaling-stroke;fill:url(#linearGradient179);fill-rule:evenodd"
         inkscape:connector-curvature="0" />
    </g>
    <g
       transform="matrix(2.74762,0,0,-2.74762,291,291)"
       font-size="11"
       font-weight="400"
       font-style="normal"
       id="g27"
       style="font-style:normal;font-weight:400;font-size:11px;font-family:Cantarell;fill:none;stroke:#000000;stroke-width:1;stroke-linecap:square;stroke-linejoin:bevel;stroke-opacity:1" />
    <g
       transform="matrix(2.74762,0,0,-2.74762,291,291)"
       font-size="11"
       font-weight="400"
       font-style="normal"
       id="g29"
       style="font-style:normal;font-weight:400;font-size:11px;font-family:Cantarell;fill:none;stroke:#000000;stroke-width:1;stroke-linecap:square;stroke-linejoin:bevel;stroke-opacity:1" />
    <g
       stroke-miterlimit="2"
       transform="matrix(2.74762,0,0,-2.74762,291,291)"
       font-size="11"
       font-weight="400"
       font-style="normal"
       id="g33"
       style="font-style:normal;font-weight:400;font-size:11px;font-family:Cantarell;fill:none;stroke:#808080;stroke-width:0.94488198;stroke-linecap:square;stroke-linejoin:miter;stroke-miterlimit:2;stroke-opacity:1">
      <path
         d="m -100,-75 c 0,-13.8071 11.1929,-25 25,-25 H 75 c 13.8071,0 25,11.1929 25,25 V 75 c 0,13.8071 -11.1929,25 -25,25 H -75 c -13.8071,0 -25,-11.1929 -25,-25 V -75"
         id="path31"
         inkscape:connector-curvature="0"
         style="vector-effect:non-scaling-stroke;fill-rule:evenodd" />
    </g>
    <g
       transform="matrix(2.74762,0,0,-2.74762,291,291)"
       font-size="11"
       font-weight="400"
       font-style="normal"
       id="g35"
       style="font-style:normal;font-weight:400;font-size:11px;font-family:Cantarell;fill:none;stroke:#000000;stroke-width:1;stroke-linecap:square;stroke-linejoin:bevel;stroke-opacity:1" />
    <g
       transform="matrix(2.74762,0,0,-2.74762,134.66,268.415)"
       font-size="11"
       font-weight="400"
       font-style="normal"
       id="g37"
       style="font-style:normal;font-weight:400;font-size:11px;font-family:Cantarell;fill:none;stroke:#000000;stroke-width:1;stroke-linecap:square;stroke-linejoin:bevel;stroke-opacity:1" />
    <g
       transform="matrix(2.74762,0,0,-2.74762,134.66,268.415)"
       font-size="11"
       font-weight="400"
       font-style="normal"
       id="g41"
       style="font-style:normal;font-weight:400;font-size:11px;font-family:Cantarell;fill:none;stroke:#000000;stroke-width:5.66929007;stroke-linecap:square;stroke-linejoin:bevel;stroke-opacity:1">
      <path
         d="M 0,15 V -15"
         id="path39"
         inkscape:connector-curvature="0"
         style="vector-effect:non-scaling-stroke;fill-rule:evenodd" />
    </g>
    <g
       transform="matrix(2.74762,0,0,-2.74762,134.66,268.415)"
       font-size="11"
       font-weight="400"
       font-style="normal"
       id="g43"
       style="font-style:normal;font-weight:400;font-size:11px;font-family:Cantarell;fill:none;stroke:#000000;stroke-width:1;stroke-linecap:square;stroke-linejoin:bevel;stroke-opacity:1" />
    <g
       transform="matrix(2.74762,0,0,-2.74762,153.894,251.929)"
       font-size="11"
       font-weight="400"
       font-style="normal"
       id="g45"
       style="font-style:normal;font-weight:400;font-size:11px;font-family:Cantarell;fill:none;stroke:#000000;stroke-width:1;stroke-linecap:square;stroke-linejoin:bevel;stroke-opacity:1" />
    <g
       transform="matrix(2.74762,0,0,-2.74762,153.894,251.929)"
       font-size="11"
       font-weight="400"
       font-style="normal"
       id="g49"
       style="font-style:normal;font-weight:400;font-size:11px;font-family:Cantarell;fill:none;stroke:#000000;stroke-width:4.72441006;stroke-linecap:square;stroke-linejoin:bevel;stroke-opacity:1">
      <path
         d="m -7,-7 0.5,6.5 c 0,0 0.5,6.5 5,8 L 3,9"
         id="path47"
         inkscape:connector-curvature="0"
         style="vector-effect:non-scaling-stroke;fill-rule:evenodd" />
    </g>
    <g
       transform="matrix(2.74762,0,0,-2.74762,153.894,251.929)"
       font-size="11"
       font-weight="400"
       font-style="normal"
       id="g51"
       style="font-style:normal;font-weight:400;font-size:11px;font-family:Cantarell;fill:none;stroke:#000000;stroke-width:1;stroke-linecap:square;stroke-linejoin:bevel;stroke-opacity:1" />
    <g
       transform="matrix(2.74762,0,0,-2.74762,148.728,331.225)"
       font-size="11"
       font-weight="400"
       font-style="normal"
       id="g53"
       style="font-style:normal;font-weight:400;font-size:11px;font-family:Cantarell;fill:none;stroke:#000000;stroke-width:1;stroke-linecap:square;stroke-linejoin:bevel;stroke-opacity:1" />
    <g
       transform="matrix(2.74762,0,0,-2.74762,148.728,331.225)"
       font-size="11"
       font-weight="400"
       font-style="normal"
       id="g57"
       style="font-style:normal;font-weight:400;font-size:11px;font-family:Cantarell;fill:none;stroke:#000000;stroke-width:5.66929007;stroke-linecap:square;stroke-linejoin:bevel;stroke-opacity:1">
      <path
         d="M 5,14 -3,-8"
         id="path55"
         inkscape:connector-curvature="0"
         style="vector-effect:non-scaling-stroke;fill-rule:evenodd" />
    </g>
    <g
       transform="matrix(2.74762,0,0,-2.74762,148.728,331.225)"
       font-size="11"
       font-weight="400"
       font-style="normal"
       id="g59"
       style="font-style:normal;font-weight:400;font-size:11px;font-family:Cantarell;fill:none;stroke:#000000;stroke-width:1;stroke-linecap:square;stroke-linejoin:bevel;stroke-opacity:1" />
    <g
       transform="matrix(2.74762,0,0,-2.74762,176.397,332.709)"
       font-size="11"
       font-weight="400"
       font-style="normal"
       id="g61"
       style="font-style:normal;font-weight:400;font-size:11px;font-family:Cantarell;fill:none;stroke:#000000;stroke-width:1;stroke-linecap:square;stroke-linejoin:bevel;stroke-opacity:1" />
    <g
       transform="matrix(2.74762,0,0,-2.74762,176.397,332.709)"
       font-size="11"
       font-weight="400"
       font-style="normal"
       id="g65"
       style="font-style:normal;font-weight:400;font-size:11px;font-family:Cantarell;fill:none;stroke:#000000;stroke-width:5.66929007;stroke-linecap:square;stroke-linejoin:bevel;stroke-opacity:1">
      <path
         d="M -4,14 4,-8"
         id="path63"
         inkscape:connector-curvature="0"
         style="vector-effect:non-scaling-stroke;fill-rule:evenodd" />
    </g>
    <g
       transform="matrix(2.74762,0,0,-2.74762,176.397,332.709)"
       font-size="11"
       font-weight="400"
       font-style="normal"
       id="g67"
       style="font-style:normal;font-weight:400;font-size:11px;font-family:Cantarell;fill:none;stroke:#000000;stroke-width:1;stroke-linecap:square;stroke-linejoin:bevel;stroke-opacity:1" />
    <g
       transform="matrix(2.74762,0,0,-2.74762,165.218,332.696)"
       font-size="11"
       font-weight="400"
       font-style="normal"
       id="g69"
       style="font-style:normal;font-weight:400;font-size:11px;font-family:Cantarell;fill:none;stroke:#000000;stroke-width:1;stroke-linecap:square;stroke-linejoin:bevel;stroke-opacity:1" />
    <g
       transform="matrix(2.74762,0,0,-2.74762,165.218,332.696)"
       font-size="11"
       font-weight="400"
       font-style="normal"
       id="g73"
       style="font-style:normal;font-weight:400;font-size:11px;font-family:Cantarell;fill:none;stroke:#000000;stroke-width:3.77953005;stroke-linecap:square;stroke-linejoin:bevel;stroke-opacity:1">
      <path
         d="M -5,0 H 3"
         id="path71"
         inkscape:connector-curvature="0"
         style="vector-effect:non-scaling-stroke;fill-rule:evenodd" />
    </g>
    <g
       transform="matrix(2.74762,0,0,-2.74762,165.218,332.696)"
       font-size="11"
       font-weight="400"
       font-style="normal"
       id="g75"
       style="font-style:normal;font-weight:400;font-size:11px;font-family:Cantarell;fill:none;stroke:#000000;stroke-width:1;stroke-linecap:square;stroke-linejoin:bevel;stroke-opacity:1" />
    <g
       transform="matrix(2.74762,0,0,-2.74762,98.9392,265.663)"
       font-size="11"
       font-weight="400"
       font-style="normal"
       id="g77"
       style="font-style:normal;font-weight:400;font-size:11px;font-family:Cantarell;fill:none;stroke:#000000;stroke-width:1;stroke-linecap:square;stroke-linejoin:bevel;stroke-opacity:1" />
    <g
       transform="matrix(2.74762,0,0,-2.74762,98.9392,265.663)"
       font-size="11"
       font-weight="400"
       font-style="normal"
       id="g81"
       style="font-style:normal;font-weight:400;font-size:11px;font-family:Cantarell;fill:none;stroke:#000000;stroke-width:4.72441006;stroke-linecap:square;stroke-linejoin:bevel;stroke-opacity:1">
      <path
         d="M -7,0 H 7"
         id="path79"
         inkscape:connector-curvature="0"
         style="vector-effect:non-scaling-stroke;fill-rule:evenodd" />
    </g>
    <g
       transform="matrix(2.74762,0,0,-2.74762,98.9392,265.663)"
       font-size="11"
       font-weight="400"
       font-style="normal"
       id="g83"
       style="font-style:normal;font-weight:400;font-size:11px;font-family:Cantarell;fill:none;stroke:#000000;stroke-width:1;stroke-linecap:square;stroke-linejoin:bevel;stroke-opacity:1" />
    <g
       transform="matrix(2.74762,0,0,-2.74762,233.575,285.477)"
       font-size="11"
       font-weight="400"
       font-style="normal"
       id="g85"
       style="font-style:normal;font-weight:400;font-size:11px;font-family:Cantarell;fill:none;stroke:#000000;stroke-width:1;stroke-linecap:square;stroke-linejoin:bevel;stroke-opacity:1" />
    <g
       transform="matrix(2.74762,0,0,-2.74762,233.575,285.477)"
       font-size="11"
       font-weight="400"
       font-style="normal"
       id="g89"
       style="font-style:normal;font-weight:400;font-size:11px;font-family:Cantarell;fill:none;stroke:#000000;stroke-width:4.72441006;stroke-linecap:square;stroke-linejoin:bevel;stroke-opacity:1">
      <path
         d="M -10,0 H 10"
         id="path87"
         inkscape:connector-curvature="0"
         style="vector-effect:non-scaling-stroke;fill-rule:evenodd" />
    </g>
    <g
       transform="matrix(2.74762,0,0,-2.74762,233.575,285.477)"
       font-size="11"
       font-weight="400"
       font-style="normal"
       id="g91"
       style="font-style:normal;font-weight:400;font-size:11px;font-family:Cantarell;fill:none;stroke:#000000;stroke-width:1;stroke-linecap:square;stroke-linejoin:bevel;stroke-opacity:1" />
    <g
       transform="matrix(2.74762,0,0,-2.74762,233.163,259.457)"
       font-size="11"
       font-weight="400"
       font-style="normal"
       id="g93"
       style="font-style:normal;font-weight:400;font-size:11px;font-family:Cantarell;fill:none;stroke:#000000;stroke-width:1;stroke-linecap:square;stroke-linejoin:bevel;stroke-opacity:1" />
    <g
       transform="matrix(2.74762,0,0,-2.74762,233.163,259.457)"
       font-size="11"
       font-weight="400"
       font-style="normal"
       id="g97"
       style="font-style:normal;font-weight:400;font-size:11px;font-family:Cantarell;fill:none;stroke:#000000;stroke-width:4.72441006;stroke-linecap:square;stroke-linejoin:bevel;stroke-opacity:1">
      <path
         d="M -10,0 H 10"
         id="path95"
         inkscape:connector-curvature="0"
         style="vector-effect:non-scaling-stroke;fill-rule:evenodd" />
    </g>
    <g
       transform="matrix(2.74762,0,0,-2.74762,233.163,259.457)"
       font-size="11"
       font-weight="400"
       font-style="normal"
       id="g99"
       style="font-style:normal;font-weight:400;font-size:11px;font-family:Cantarell;fill:none;stroke:#000000;stroke-width:1;stroke-linecap:square;stroke-linejoin:bevel;stroke-opacity:1" />
    <g
       transform="matrix(2.74762,0,0,-2.74762,306.112,286.411)"
       font-size="11"
       font-weight="400"
       font-style="normal"
       id="g101"
       style="font-style:normal;font-weight:400;font-size:11px;font-family:Cantarell;fill:none;stroke:#000000;stroke-width:1;stroke-linecap:square;stroke-linejoin:bevel;stroke-opacity:1" />
    <g
       transform="matrix(2.74762,0,0,-2.74762,306.112,286.411)"
       font-size="11"
       font-weight="400"
       font-style="normal"
       id="g105"
       style="font-style:normal;font-weight:400;font-size:11px;font-family:Cantarell;fill:none;stroke:#000000;stroke-width:5.66929007;stroke-linecap:square;stroke-linejoin:bevel;stroke-opacity:1">
      <path
         d="M 0,23 V -15"
         id="path103"
         inkscape:connector-curvature="0"
         style="vector-effect:non-scaling-stroke;fill-rule:evenodd" />
    </g>
    <g
       transform="matrix(2.74762,0,0,-2.74762,306.112,286.411)"
       font-size="11"
       font-weight="400"
       font-style="normal"
       id="g107"
       style="font-style:normal;font-weight:400;font-size:11px;font-family:Cantarell;fill:none;stroke:#000000;stroke-width:1;stroke-linecap:square;stroke-linejoin:bevel;stroke-opacity:1" />
    <g
       transform="matrix(2.74762,0,0,-2.74762,329.934,301.771)"
       font-size="11"
       font-weight="400"
       font-style="normal"
       id="g109"
       style="font-style:normal;font-weight:400;font-size:11px;font-family:Cantarell;fill:none;stroke:#000000;stroke-width:1;stroke-linecap:square;stroke-linejoin:bevel;stroke-opacity:1" />
    <g
       transform="matrix(2.74762,0,0,-2.74762,329.934,301.771)"
       font-size="11"
       font-weight="400"
       font-style="normal"
       id="g113"
       style="font-style:normal;font-weight:400;font-size:11px;font-family:Cantarell;fill:none;stroke:#000000;stroke-width:4.72441006;stroke-linecap:square;stroke-linejoin:bevel;stroke-opacity:1">
      <path
         d="M -8,7 6,-11"
         id="path111"
         inkscape:connector-curvature="0"
         style="vector-effect:non-scaling-stroke;fill-rule:evenodd" />
    </g>
    <g
       transform="matrix(2.74762,0,0,-2.74762,329.934,301.771)"
       font-size="11"
       font-weight="400"
       font-style="normal"
       id="g115"
       style="font-style:normal;font-weight:400;font-size:11px;font-family:Cantarell;fill:none;stroke:#000000;stroke-width:1;stroke-linecap:square;stroke-linejoin:bevel;stroke-opacity:1" />
    <g
       transform="matrix(2.74762,0,0,-2.74762,329.549,262.947)"
       font-size="11"
       font-weight="400"
       font-style="normal"
       id="g117"
       style="font-style:normal;font-weight:400;font-size:11px;font-family:Cantarell;fill:none;stroke:#000000;stroke-width:1;stroke-linecap:square;stroke-linejoin:bevel;stroke-opacity:1" />
    <g
       transform="matrix(2.74762,0,0,-2.74762,329.549,262.947)"
       font-size="11"
       font-weight="400"
       font-style="normal"
       id="g121"
       style="font-style:normal;font-weight:400;font-size:11px;font-family:Cantarell;fill:none;stroke:#000000;stroke-width:4.72441006;stroke-linecap:square;stroke-linejoin:bevel;stroke-opacity:1">
      <path
         d="M -8,-7 4,5"
         id="path119"
         inkscape:connector-curvature="0"
         style="vector-effect:non-scaling-stroke;fill-rule:evenodd" />
    </g>
    <g
       transform="matrix(2.74762,0,0,-2.74762,329.549,262.947)"
       font-size="11"
       font-weight="400"
       font-style="normal"
       id="g123"
       style="font-style:normal;font-weight:400;font-size:11px;font-family:Cantarell;fill:none;stroke:#000000;stroke-width:1;stroke-linecap:square;stroke-linejoin:bevel;stroke-opacity:1" />
    <g
       transform="matrix(2.74762,0,0,-2.74762,404.654,295.46)"
       font-size="11"
       font-weight="400"
       font-style="normal"
       id="g125"
       style="font-style:normal;font-weight:400;font-size:11px;font-family:Cantarell;fill:none;stroke:#000000;stroke-width:1;stroke-linecap:square;stroke-linejoin:bevel;stroke-opacity:1" />
    <g
       transform="matrix(2.74762,0,0,-2.74762,404.654,295.46)"
       font-size="11"
       font-weight="400"
       font-style="normal"
       id="g129"
       style="font-style:normal;font-weight:400;font-size:11px;font-family:Cantarell;fill:none;stroke:#000000;stroke-width:5.66929007;stroke-linecap:square;stroke-linejoin:bevel;stroke-opacity:1">
      <path
         d="m 10.8035,16.9708 -2.49999,3.25 c 0,0 -2.5,3.25 -7.75,3.375 0,0 -5.25,0.125 -9.5,-3.75 0,0 -4.25001,-3.875 -5.25001,-9.125 0,0 -1,-5.25 0,-10.5 0,0 1,-5.25 5,-9.25 0,0 4,-4 9.00001,-4 0,0 5.00001,0 8,3 l 2.99999,3"
         id="path127"
         inkscape:connector-curvature="0"
         style="vector-effect:non-scaling-stroke;fill-rule:evenodd" />
    </g>
    <g
       transform="matrix(2.74762,0,0,-2.74762,404.654,295.46)"
       font-size="11"
       font-weight="400"
       font-style="normal"
       id="g131"
       style="font-style:normal;font-weight:400;font-size:11px;font-family:Cantarell;fill:none;stroke:#000000;stroke-width:1;stroke-linecap:square;stroke-linejoin:bevel;stroke-opacity:1" />
    <g
       transform="matrix(2.74762,0,0,-2.74762,450.774,331.637)"
       font-size="11"
       font-weight="400"
       font-style="normal"
       id="g133"
       style="font-style:normal;font-weight:400;font-size:11px;font-family:Cantarell;fill:none;stroke:#000000;stroke-width:1;stroke-linecap:square;stroke-linejoin:bevel;stroke-opacity:1" />
    <g
       transform="matrix(2.74762,0,0,-2.74762,450.774,331.637)"
       font-size="11"
       font-weight="400"
       font-style="normal"
       id="g137"
       style="font-style:normal;font-weight:400;font-size:11px;font-family:Cantarell;fill:none;stroke:#000000;stroke-width:5.66929007;stroke-linecap:square;stroke-linejoin:bevel;stroke-opacity:1">
      <path
         d="M 5,14 -3,-8"
         id="path135"
         inkscape:connector-curvature="0"
         style="vector-effect:non-scaling-stroke;fill-rule:evenodd" />
    </g>
    <g
       transform="matrix(2.74762,0,0,-2.74762,450.774,331.637)"
       font-size="11"
       font-weight="400"
       font-style="normal"
       id="g139"
       style="font-style:normal;font-weight:400;font-size:11px;font-family:Cantarell;fill:none;stroke:#000000;stroke-width:1;stroke-linecap:square;stroke-linejoin:bevel;stroke-opacity:1" />
    <g
       transform="matrix(2.74762,0,0,-2.74762,470.172,331.637)"
       font-size="11"
       font-weight="400"
       font-style="normal"
       id="g141"
       style="font-style:normal;font-weight:400;font-size:11px;font-family:Cantarell;fill:none;stroke:#000000;stroke-width:1;stroke-linecap:square;stroke-linejoin:bevel;stroke-opacity:1" />
    <g
       transform="matrix(2.74762,0,0,-2.74762,470.172,331.637)"
       font-size="11"
       font-weight="400"
       font-style="normal"
       id="g145"
       style="font-style:normal;font-weight:400;font-size:11px;font-family:Cantarell;fill:none;stroke:#000000;stroke-width:4.72441006;stroke-linecap:square;stroke-linejoin:bevel;stroke-opacity:1">
      <path
         d="M -5,0 H 3"
         id="path143"
         inkscape:connector-curvature="0"
         style="vector-effect:non-scaling-stroke;fill-rule:evenodd" />
    </g>
    <g
       transform="matrix(2.74762,0,0,-2.74762,470.172,331.637)"
       font-size="11"
       font-weight="400"
       font-style="normal"
       id="g147"
       style="font-style:normal;font-weight:400;font-size:11px;font-family:Cantarell;fill:none;stroke:#000000;stroke-width:1;stroke-linecap:square;stroke-linejoin:bevel;stroke-opacity:1" />
    <g
       transform="matrix(2.74762,0,0,-2.74762,478.415,331.637)"
       font-size="11"
       font-weight="400"
       font-style="normal"
       id="g149"
       style="font-style:normal;font-weight:400;font-size:11px;font-family:Cantarell;fill:none;stroke:#000000;stroke-width:1;stroke-linecap:square;stroke-linejoin:bevel;stroke-opacity:1" />
    <g
       transform="matrix(2.74762,0,0,-2.74762,478.415,331.637)"
       font-size="11"
       font-weight="400"
       font-style="normal"
       id="g153"
       style="font-style:normal;font-weight:400;font-size:11px;font-family:Cantarell;fill:none;stroke:#000000;stroke-width:5.66929007;stroke-linecap:square;stroke-linejoin:bevel;stroke-opacity:1">
      <path
         d="M -4,14 4,-8"
         id="path151"
         inkscape:connector-curvature="0"
         style="vector-effect:non-scaling-stroke;fill-rule:evenodd" />
    </g>
    <g
       transform="matrix(2.74762,0,0,-2.74762,478.415,331.637)"
       font-size="11"
       font-weight="400"
       font-style="normal"
       id="g155"
       style="font-style:normal;font-weight:400;font-size:11px;font-family:Cantarell;fill:none;stroke:#000000;stroke-width:1;stroke-linecap:square;stroke-linejoin:bevel;stroke-opacity:1" />
    <g
       transform="matrix(2.74762,0,0,-2.74762,296.495,406.4)"
       font-size="11"
       font-weight="400"
       font-style="normal"
       id="g157"
       style="font-style:normal;font-weight:400;font-size:11px;font-family:Cantarell;fill:none;stroke:#000000;stroke-width:1;stroke-linecap:square;stroke-linejoin:bevel;stroke-opacity:1" />
    <g
       transform="matrix(2.74762,0,0,-2.74762,296.495,406.4)"
       font-size="11"
       font-weight="400"
       font-style="normal"
       id="g165"
       style="font-style:normal;font-weight:400;font-size:11px;font-family:Cantarell;fill:none;stroke:#cc0000;stroke-width:5.66929007;stroke-linecap:square;stroke-linejoin:bevel;stroke-opacity:1">
      <path
         d="M -74,0 H 74"
         id="path159"
         inkscape:connector-curvature="0"
         style="vector-effect:non-scaling-stroke;fill-rule:evenodd" />
      <polyline
         points="74,0 62.7417,6.5 "
         id="polyline161"
         style="vector-effect:non-scaling-stroke;fill:none" />
      <polyline
         points="74,0 62.7417,-6.5 "
         id="polyline163"
         style="vector-effect:non-scaling-stroke;fill:none" />
    </g>
    <g
       transform="matrix(2.74762,0,0,-2.74762,296.495,406.4)"
       font-size="11"
       font-weight="400"
       font-style="normal"
       id="g167"
       style="font-style:normal;font-weight:400;font-size:11px;font-family:Cantarell;fill:none;stroke:#000000;stroke-width:1;stroke-linecap:square;stroke-linejoin:bevel;stroke-opacity:1" />
    <g
       transform="translate(-127,1)"
       font-size="11"
       font-weight="400"
       font-style="normal"
       id="g169"
       style="font-style:normal;font-weight:400;font-size:11px;font-family:Cantarell;fill:none;stroke:#000000;stroke-width:1;stroke-linecap:square;stroke-linejoin:bevel;stroke-opacity:1" />
  </g>
</svg>
