<?xml version="1.0" encoding="UTF-8" standalone="no"?>
<svg
   xmlns:dc="http://purl.org/dc/elements/1.1/"
   xmlns:cc="http://creativecommons.org/ns#"
   xmlns:rdf="http://www.w3.org/1999/02/22-rdf-syntax-ns#"
   xmlns:svg="http://www.w3.org/2000/svg"
   xmlns="http://www.w3.org/2000/svg"
   xmlns:xlink="http://www.w3.org/1999/xlink"
   xmlns:sodipodi="http://sodipodi.sourceforge.net/DTD/sodipodi-0.dtd"
   xmlns:inkscape="http://www.inkscape.org/namespaces/inkscape"
   width="29.216297mm"
   height="29.216297mm"
   viewBox="0 0 82.818027 82.818027"
   version="1.2"
   id="svg159"
   sodipodi:docname="GrowthModels.svg"
   inkscape:version="0.92.4 (5da689c313, 2019-01-14)">
  <metadata
     id="metadata163">
    <rdf:RDF>
      <cc:Work
         rdf:about="">
        <dc:format>image/svg+xml</dc:format>
        <dc:type
           rdf:resource="http://purl.org/dc/dcmitype/StillImage" />
      </cc:Work>
    </rdf:RDF>
  </metadata>
  <sodipodi:namedview
     pagecolor="#ffffff"
     bordercolor="#666666"
     borderopacity="1"
     objecttolerance="10"
     gridtolerance="10"
     guidetolerance="10"
     inkscape:pageopacity="0"
     inkscape:pageshadow="2"
     inkscape:window-width="834"
     inkscape:window-height="480"
     id="namedview161"
     showgrid="false"
     inkscape:zoom="0.30360271"
     inkscape:cx="55.878571"
     inkscape:cy="54.545228"
     inkscape:window-x="0"
     inkscape:window-y="27"
     inkscape:window-maximized="0"
     inkscape:current-layer="svg159" />
  <title
     id="title2">OMEdit - OpenModelica Connection Editor</title>
  <desc
     id="desc4">Generated by OMEdit - OpenModelica Connection Editor</desc>
  <defs
     id="defs53">
    <linearGradient
       gradientUnits="userSpaceOnUse"
       x1="0"
       y1="-100"
       x2="0"
       y2="100"
       id="gradient1">
      <stop
         offset="0"
         stop-color="#c8c8c8"
         stop-opacity="1"
         id="stop6" />
      <stop
         offset="0.5"
         stop-color="#f8f8f8"
         stop-opacity="1"
         id="stop8" />
      <stop
         offset="1"
         stop-color="#c8c8c8"
         stop-opacity="1"
         id="stop10" />
    </linearGradient>
    <radialGradient
       gradientUnits="userSpaceOnUse"
       cx="-11"
       cy="10"
       r="24"
       fx="-11"
       fy="10"
       id="gradient2">
      <stop
         offset="0"
         stop-color="#4e9a06"
         stop-opacity="1"
         id="stop13" />
      <stop
         offset="1"
         stop-color="#8f5902"
         stop-opacity="1"
         id="stop15" />
    </radialGradient>
    <radialGradient
       gradientUnits="userSpaceOnUse"
       cx="-11"
       cy="11"
       r="24"
       fx="-11"
       fy="11"
       id="gradient3">
      <stop
         offset="0"
         stop-color="#729fcf"
         stop-opacity="1"
         id="stop18" />
      <stop
         offset="1"
         stop-color="#2e3436"
         stop-opacity="1"
         id="stop20" />
    </radialGradient>
    <radialGradient
       gradientUnits="userSpaceOnUse"
       cx="-11"
       cy="11"
       r="24"
       fx="-11"
       fy="11"
       id="gradient4">
      <stop
         offset="0"
         stop-color="#729fcf"
         stop-opacity="1"
         id="stop23" />
      <stop
         offset="1"
         stop-color="#2e3436"
         stop-opacity="1"
         id="stop25" />
    </radialGradient>
    <radialGradient
       gradientUnits="userSpaceOnUse"
       cx="-11"
       cy="10"
       r="24"
       fx="-11"
       fy="10"
       id="gradient5">
      <stop
         offset="0"
         stop-color="#4e9a06"
         stop-opacity="1"
         id="stop28" />
      <stop
         offset="1"
         stop-color="#8f5902"
         stop-opacity="1"
         id="stop30" />
    </radialGradient>
    <radialGradient
       gradientUnits="userSpaceOnUse"
       cx="-11"
       cy="10"
       r="24"
       fx="-11"
       fy="10"
       id="gradient6">
      <stop
         offset="0"
         stop-color="#4e9a06"
         stop-opacity="1"
         id="stop33" />
      <stop
         offset="1"
         stop-color="#8f5902"
         stop-opacity="1"
         id="stop35" />
    </radialGradient>
    <radialGradient
       gradientUnits="userSpaceOnUse"
       cx="-11"
       cy="11"
       r="24"
       fx="-11"
       fy="11"
       id="gradient7">
      <stop
         offset="0"
         stop-color="#729fcf"
         stop-opacity="1"
         id="stop38" />
      <stop
         offset="1"
         stop-color="#2e3436"
         stop-opacity="1"
         id="stop40" />
    </radialGradient>
    <radialGradient
       gradientUnits="userSpaceOnUse"
       cx="-11"
       cy="11"
       r="24"
       fx="-11"
       fy="11"
       id="gradient8">
      <stop
         offset="0"
         stop-color="#729fcf"
         stop-opacity="1"
         id="stop43" />
      <stop
         offset="1"
         stop-color="#2e3436"
         stop-opacity="1"
         id="stop45" />
    </radialGradient>
    <radialGradient
       gradientUnits="userSpaceOnUse"
       cx="-11"
       cy="11"
       r="24"
       fx="-11"
       fy="11"
       id="gradient9">
      <stop
         offset="0"
         stop-color="#729fcf"
         stop-opacity="1"
         id="stop48" />
      <stop
         offset="1"
         stop-color="#2e3436"
         stop-opacity="1"
         id="stop50" />
    </radialGradient>
    <linearGradient
       inkscape:collect="always"
       xlink:href="#gradient1"
       id="linearGradient165"
       gradientUnits="userSpaceOnUse"
       x1="0"
       y1="-100"
       x2="0"
       y2="100" />
    <linearGradient
       inkscape:collect="always"
       xlink:href="#gradient1"
       id="linearGradient167"
       gradientUnits="userSpaceOnUse"
       x1="0"
       y1="-100"
       x2="0"
       y2="100" />
    <radialGradient
       inkscape:collect="always"
       xlink:href="#gradient2"
       id="radialGradient169"
       gradientUnits="userSpaceOnUse"
       cx="-11"
       cy="10"
       fx="-11"
       fy="10"
       r="24" />
    <radialGradient
       inkscape:collect="always"
       xlink:href="#gradient2"
       id="radialGradient171"
       gradientUnits="userSpaceOnUse"
       cx="-11"
       cy="10"
       fx="-11"
       fy="10"
       r="24" />
    <radialGradient
       inkscape:collect="always"
       xlink:href="#gradient3"
       id="radialGradient173"
       gradientUnits="userSpaceOnUse"
       cx="-11"
       cy="11"
       fx="-11"
       fy="11"
       r="24" />
    <radialGradient
       inkscape:collect="always"
       xlink:href="#gradient3"
       id="radialGradient175"
       gradientUnits="userSpaceOnUse"
       cx="-11"
       cy="11"
       fx="-11"
       fy="11"
       r="24" />
    <radialGradient
       inkscape:collect="always"
       xlink:href="#gradient4"
       id="radialGradient177"
       gradientUnits="userSpaceOnUse"
       cx="-11"
       cy="11"
       fx="-11"
       fy="11"
       r="24" />
    <radialGradient
       inkscape:collect="always"
       xlink:href="#gradient4"
       id="radialGradient179"
       gradientUnits="userSpaceOnUse"
       cx="-11"
       cy="11"
       fx="-11"
       fy="11"
       r="24" />
    <radialGradient
       inkscape:collect="always"
       xlink:href="#gradient5"
       id="radialGradient181"
       gradientUnits="userSpaceOnUse"
       cx="-11"
       cy="10"
       fx="-11"
       fy="10"
       r="24" />
    <radialGradient
       inkscape:collect="always"
       xlink:href="#gradient5"
       id="radialGradient183"
       gradientUnits="userSpaceOnUse"
       cx="-11"
       cy="10"
       fx="-11"
       fy="10"
       r="24" />
    <radialGradient
       inkscape:collect="always"
       xlink:href="#gradient6"
       id="radialGradient185"
       gradientUnits="userSpaceOnUse"
       cx="-11"
       cy="10"
       fx="-11"
       fy="10"
       r="24" />
    <radialGradient
       inkscape:collect="always"
       xlink:href="#gradient6"
       id="radialGradient187"
       gradientUnits="userSpaceOnUse"
       cx="-11"
       cy="10"
       fx="-11"
       fy="10"
       r="24" />
    <radialGradient
       inkscape:collect="always"
       xlink:href="#gradient7"
       id="radialGradient189"
       gradientUnits="userSpaceOnUse"
       cx="-11"
       cy="11"
       fx="-11"
       fy="11"
       r="24" />
    <radialGradient
       inkscape:collect="always"
       xlink:href="#gradient7"
       id="radialGradient191"
       gradientUnits="userSpaceOnUse"
       cx="-11"
       cy="11"
       fx="-11"
       fy="11"
       r="24" />
    <radialGradient
       inkscape:collect="always"
       xlink:href="#gradient8"
       id="radialGradient193"
       gradientUnits="userSpaceOnUse"
       cx="-11"
       cy="11"
       fx="-11"
       fy="11"
       r="24" />
    <radialGradient
       inkscape:collect="always"
       xlink:href="#gradient8"
       id="radialGradient195"
       gradientUnits="userSpaceOnUse"
       cx="-11"
       cy="11"
       fx="-11"
       fy="11"
       r="24" />
    <radialGradient
       inkscape:collect="always"
       xlink:href="#gradient9"
       id="radialGradient197"
       gradientUnits="userSpaceOnUse"
       cx="-11"
       cy="11"
       fx="-11"
       fy="11"
       r="24" />
    <radialGradient
       inkscape:collect="always"
       xlink:href="#gradient9"
       id="radialGradient199"
       gradientUnits="userSpaceOnUse"
       cx="-11"
       cy="11"
       fx="-11"
       fy="11"
       r="24" />
  </defs>
  <g
     id="g157"
     transform="matrix(0.15,0,0,0.15,-2.2409868,-2.2409868)"
     style="fill:none;fill-rule:evenodd;stroke:#000000;stroke-width:1;stroke-linecap:square;stroke-linejoin:bevel">
    <g
       transform="translate(-127,1)"
       font-size="11"
       font-weight="400"
       font-style="normal"
       id="g55"
       style="font-style:normal;font-weight:400;font-size:11px;font-family:Cantarell;fill:none;stroke:#000000;stroke-width:1;stroke-linecap:square;stroke-linejoin:bevel;stroke-opacity:1" />
    <g
       transform="translate(-127,1)"
       font-size="11"
       font-weight="400"
       font-style="normal"
       id="g57"
       style="font-style:normal;font-weight:400;font-size:11px;font-family:Cantarell;fill:none;stroke:#000000;stroke-width:1;stroke-linecap:square;stroke-linejoin:bevel;stroke-opacity:1" />
    <g
       transform="translate(-127,1)"
       font-size="11"
       font-weight="400"
       font-style="normal"
       id="g59"
       style="font-style:normal;font-weight:400;font-size:11px;font-family:Cantarell;fill:none;stroke:#000000;stroke-width:1;stroke-linecap:square;stroke-linejoin:bevel;stroke-opacity:1" />
    <g
       transform="matrix(2.74762,0,0,-2.74762,291,291)"
       font-size="11"
       font-weight="400"
       font-style="normal"
       id="g61"
       style="font-style:normal;font-weight:400;font-size:11px;font-family:Cantarell;fill:none;stroke:#000000;stroke-width:1;stroke-linecap:square;stroke-linejoin:bevel;stroke-opacity:1" />
    <g
       stroke-miterlimit="2"
       transform="matrix(2.74762,0,0,-2.74762,291,291)"
       font-size="11"
       font-weight="400"
       font-style="normal"
       id="g65"
       style="font-style:normal;font-weight:400;font-size:11px;font-family:Cantarell;fill:url(#linearGradient167);stroke:#c8c8c8;stroke-width:0.94488198;stroke-linecap:square;stroke-linejoin:miter;stroke-miterlimit:2;stroke-opacity:1">
      <path
         d="m -100,-75 c 0,-13.8071 11.1929,-25 25,-25 H 75 c 13.8071,0 25,11.1929 25,25 V 75 c 0,13.8071 -11.1929,25 -25,25 H -75 c -13.8071,0 -25,-11.1929 -25,-25 V -75"
         id="path63"
         style="vector-effect:non-scaling-stroke;fill:url(#linearGradient165);fill-rule:evenodd"
         inkscape:connector-curvature="0" />
    </g>
    <g
       transform="matrix(2.74762,0,0,-2.74762,291,291)"
       font-size="11"
       font-weight="400"
       font-style="normal"
       id="g67"
       style="font-style:normal;font-weight:400;font-size:11px;font-family:Cantarell;fill:none;stroke:#000000;stroke-width:1;stroke-linecap:square;stroke-linejoin:bevel;stroke-opacity:1" />
    <g
       transform="matrix(2.74762,0,0,-2.74762,291,291)"
       font-size="11"
       font-weight="400"
       font-style="normal"
       id="g69"
       style="font-style:normal;font-weight:400;font-size:11px;font-family:Cantarell;fill:none;stroke:#000000;stroke-width:1;stroke-linecap:square;stroke-linejoin:bevel;stroke-opacity:1" />
    <g
       stroke-miterlimit="2"
       transform="matrix(2.74762,0,0,-2.74762,291,291)"
       font-size="11"
       font-weight="400"
       font-style="normal"
       id="g73"
       style="font-style:normal;font-weight:400;font-size:11px;font-family:Cantarell;fill:none;stroke:#808080;stroke-width:0.94488198;stroke-linecap:square;stroke-linejoin:miter;stroke-miterlimit:2;stroke-opacity:1">
      <path
         d="m -100,-75 c 0,-13.8071 11.1929,-25 25,-25 H 75 c 13.8071,0 25,11.1929 25,25 V 75 c 0,13.8071 -11.1929,25 -25,25 H -75 c -13.8071,0 -25,-11.1929 -25,-25 V -75"
         id="path71"
         inkscape:connector-curvature="0"
         style="vector-effect:non-scaling-stroke;fill-rule:evenodd" />
    </g>
    <g
       transform="matrix(2.74762,0,0,-2.74762,291,291)"
       font-size="11"
       font-weight="400"
       font-style="normal"
       id="g75"
       style="font-style:normal;font-weight:400;font-size:11px;font-family:Cantarell;fill:none;stroke:#000000;stroke-width:1;stroke-linecap:square;stroke-linejoin:bevel;stroke-opacity:1" />
    <g
       transform="matrix(2.74762,0,0,-2.74762,257.782,221.246)"
       font-size="11"
       font-weight="400"
       font-style="normal"
       id="g77"
       style="font-style:normal;font-weight:400;font-size:11px;font-family:Cantarell;fill:none;stroke:#000000;stroke-width:1;stroke-linecap:square;stroke-linejoin:bevel;stroke-opacity:1" />
    <g
       transform="matrix(2.74762,0,0,-2.74762,257.782,221.246)"
       font-size="11"
       font-weight="400"
       font-style="normal"
       id="g81"
       style="font-style:normal;font-weight:400;font-size:11px;font-family:Cantarell;fill:none;stroke:#000000;stroke-width:2.83465004;stroke-linecap:square;stroke-linejoin:bevel;stroke-opacity:1">
      <path
         d="m -10.865,-44 6.5,12 c 0,0 6.5,12 20,22 l 13.5,10"
         id="path79"
         inkscape:connector-curvature="0"
         style="vector-effect:non-scaling-stroke;fill-rule:evenodd" />
    </g>
    <g
       transform="matrix(2.74762,0,0,-2.74762,257.782,221.246)"
       font-size="11"
       font-weight="400"
       font-style="normal"
       id="g85"
       style="font-style:normal;font-weight:400;font-size:11px;font-family:Cantarell;fill:#000000;fill-opacity:1;stroke:#000000;stroke-width:2.83465004;stroke-linecap:square;stroke-linejoin:bevel;stroke-opacity:1">
      <path
         d="M 29.135,0 14.2323,-1.70555 23.1607,-13.7589 29.135,0"
         id="path83"
         inkscape:connector-curvature="0"
         style="vector-effect:non-scaling-stroke;fill-rule:evenodd" />
    </g>
    <g
       transform="matrix(2.74762,0,0,-2.74762,257.782,221.246)"
       font-size="11"
       font-weight="400"
       font-style="normal"
       id="g87"
       style="font-style:normal;font-weight:400;font-size:11px;font-family:Cantarell;fill:none;stroke:#000000;stroke-width:2.83465004;stroke-linecap:square;stroke-linejoin:bevel;stroke-opacity:1" />
    <g
       transform="matrix(2.74762,0,0,-2.74762,257.782,221.246)"
       font-size="11"
       font-weight="400"
       font-style="normal"
       id="g89"
       style="font-style:normal;font-weight:400;font-size:11px;font-family:Cantarell;fill:none;stroke:#000000;stroke-width:1;stroke-linecap:square;stroke-linejoin:bevel;stroke-opacity:1" />
    <g
       transform="matrix(2.74762,0,0,-2.74762,172.852,505.314)"
       font-size="11"
       font-weight="400"
       font-style="normal"
       id="g91"
       style="font-style:normal;font-weight:400;font-size:11px;font-family:Cantarell;fill:none;stroke:#000000;stroke-width:1;stroke-linecap:square;stroke-linejoin:bevel;stroke-opacity:1" />
    <g
       stroke-miterlimit="2"
       transform="matrix(2.74762,0,0,2.74762,172.852,450.362)"
       font-size="11"
       font-weight="400"
       font-style="normal"
       id="g95"
       style="font-style:normal;font-weight:400;font-size:11px;font-family:Cantarell;fill:url(#radialGradient171);stroke:#8f5902;stroke-width:2.83465004;stroke-linecap:square;stroke-linejoin:miter;stroke-miterlimit:2;stroke-dasharray:2.83465, 5.66929;stroke-dashoffset:0;stroke-opacity:1">
      <path
         d="m 1,10 c 0,6.6274 -5.37258,12 -12,12 -6.6274,0 -12,-5.3726 -12,-12 0,-6.62742 5.3726,-12 12,-12 6.62742,0 12,5.37258 12,12"
         id="path93"
         style="vector-effect:non-scaling-stroke;fill:url(#radialGradient169);fill-rule:evenodd"
         inkscape:connector-curvature="0" />
    </g>
    <g
       transform="matrix(2.74762,0,0,-2.74762,172.852,505.314)"
       font-size="11"
       font-weight="400"
       font-style="normal"
       id="g97"
       style="font-style:normal;font-weight:400;font-size:11px;font-family:Cantarell;fill:none;stroke:#000000;stroke-width:1;stroke-linecap:square;stroke-linejoin:bevel;stroke-opacity:1" />
    <g
       transform="matrix(2.74762,0,0,-2.74762,260.776,444.867)"
       font-size="11"
       font-weight="400"
       font-style="normal"
       id="g99"
       style="font-style:normal;font-weight:400;font-size:11px;font-family:Cantarell;fill:none;stroke:#000000;stroke-width:1;stroke-linecap:square;stroke-linejoin:bevel;stroke-opacity:1" />
    <g
       stroke-miterlimit="2"
       transform="matrix(2.74762,0,0,2.74762,260.776,384.419)"
       font-size="11"
       font-weight="400"
       font-style="normal"
       id="g103"
       style="font-style:normal;font-weight:400;font-size:11px;font-family:Cantarell;fill:url(#radialGradient175);stroke:#2e3436;stroke-width:2.83465004;stroke-linecap:square;stroke-linejoin:miter;stroke-miterlimit:2;stroke-dasharray:2.83465, 5.66929;stroke-dashoffset:0;stroke-opacity:1">
      <path
         d="m 1,11 c 0,6.0751 -5.37258,11 -12,11 -6.6274,0 -12,-4.9249 -12,-11 0,-6.07513 5.3726,-11 12,-11 6.62742,0 12,4.92487 12,11"
         id="path101"
         style="vector-effect:non-scaling-stroke;fill:url(#radialGradient173);fill-rule:evenodd"
         inkscape:connector-curvature="0" />
    </g>
    <g
       transform="matrix(2.74762,0,0,-2.74762,260.776,444.867)"
       font-size="11"
       font-weight="400"
       font-style="normal"
       id="g105"
       style="font-style:normal;font-weight:400;font-size:11px;font-family:Cantarell;fill:none;stroke:#000000;stroke-width:1;stroke-linecap:square;stroke-linejoin:bevel;stroke-opacity:1" />
    <g
       transform="matrix(2.74762,0,0,-2.74762,156.367,400.905)"
       font-size="11"
       font-weight="400"
       font-style="normal"
       id="g107"
       style="font-style:normal;font-weight:400;font-size:11px;font-family:Cantarell;fill:none;stroke:#000000;stroke-width:1;stroke-linecap:square;stroke-linejoin:bevel;stroke-opacity:1" />
    <g
       stroke-miterlimit="2"
       transform="matrix(2.74762,0,0,2.74762,156.367,340.457)"
       font-size="11"
       font-weight="400"
       font-style="normal"
       id="g111"
       style="font-style:normal;font-weight:400;font-size:11px;font-family:Cantarell;fill:url(#radialGradient179);stroke:#2e3436;stroke-width:2.83465004;stroke-linecap:square;stroke-linejoin:miter;stroke-miterlimit:2;stroke-dasharray:2.83465, 5.66929;stroke-dashoffset:0;stroke-opacity:1">
      <path
         d="m 1,11 c 0,6.0751 -5.37258,11 -12,11 -6.6274,0 -12,-4.9249 -12,-11 0,-6.07513 5.3726,-11 12,-11 6.62742,0 12,4.92487 12,11"
         id="path109"
         style="vector-effect:non-scaling-stroke;fill:url(#radialGradient177);fill-rule:evenodd"
         inkscape:connector-curvature="0" />
    </g>
    <g
       transform="matrix(2.74762,0,0,-2.74762,156.367,400.905)"
       font-size="11"
       font-weight="400"
       font-style="normal"
       id="g113"
       style="font-style:normal;font-weight:400;font-size:11px;font-family:Cantarell;fill:none;stroke:#000000;stroke-width:1;stroke-linecap:square;stroke-linejoin:bevel;stroke-opacity:1" />
    <g
       transform="matrix(2.74762,0,0,-2.74762,354.195,98.6667)"
       font-size="11"
       font-weight="400"
       font-style="normal"
       id="g115"
       style="font-style:normal;font-weight:400;font-size:11px;font-family:Cantarell;fill:none;stroke:#000000;stroke-width:1;stroke-linecap:square;stroke-linejoin:bevel;stroke-opacity:1" />
    <g
       stroke-miterlimit="2"
       transform="matrix(2.74762,0,0,2.74762,354.195,43.7143)"
       font-size="11"
       font-weight="400"
       font-style="normal"
       id="g119"
       style="font-style:normal;font-weight:400;font-size:11px;font-family:Cantarell;fill:url(#radialGradient183);stroke:#8f5902;stroke-width:2.83465004;stroke-linecap:square;stroke-linejoin:miter;stroke-miterlimit:2;stroke-dasharray:2.83465, 5.66929;stroke-dashoffset:0;stroke-opacity:1">
      <path
         d="m 1,10 c 0,6.6274 -5.37258,12 -12,12 -6.6274,0 -12,-5.3726 -12,-12 0,-6.62742 5.3726,-12 12,-12 6.62742,0 12,5.37258 12,12"
         id="path117"
         style="vector-effect:non-scaling-stroke;fill:url(#radialGradient181);fill-rule:evenodd"
         inkscape:connector-curvature="0" />
    </g>
    <g
       transform="matrix(2.74762,0,0,-2.74762,354.195,98.6667)"
       font-size="11"
       font-weight="400"
       font-style="normal"
       id="g121"
       style="font-style:normal;font-weight:400;font-size:11px;font-family:Cantarell;fill:none;stroke:#000000;stroke-width:1;stroke-linecap:square;stroke-linejoin:bevel;stroke-opacity:1" />
    <g
       transform="matrix(2.74762,0,0,-2.74762,513.557,219.562)"
       font-size="11"
       font-weight="400"
       font-style="normal"
       id="g123"
       style="font-style:normal;font-weight:400;font-size:11px;font-family:Cantarell;fill:none;stroke:#000000;stroke-width:1;stroke-linecap:square;stroke-linejoin:bevel;stroke-opacity:1" />
    <g
       stroke-miterlimit="2"
       transform="matrix(2.74762,0,0,2.74762,513.557,164.61)"
       font-size="11"
       font-weight="400"
       font-style="normal"
       id="g127"
       style="font-style:normal;font-weight:400;font-size:11px;font-family:Cantarell;fill:url(#radialGradient187);stroke:#8f5902;stroke-width:2.83465004;stroke-linecap:square;stroke-linejoin:miter;stroke-miterlimit:2;stroke-dasharray:2.83465, 5.66929;stroke-dashoffset:0;stroke-opacity:1">
      <path
         d="m 1,10 c 0,6.6274 -5.37258,12 -12,12 -6.6274,0 -12,-5.3726 -12,-12 0,-6.62742 5.3726,-12 12,-12 6.62742,0 12,5.37258 12,12"
         id="path125"
         style="vector-effect:non-scaling-stroke;fill:url(#radialGradient185);fill-rule:evenodd"
         inkscape:connector-curvature="0" />
    </g>
    <g
       transform="matrix(2.74762,0,0,-2.74762,513.557,219.562)"
       font-size="11"
       font-weight="400"
       font-style="normal"
       id="g129"
       style="font-style:normal;font-weight:400;font-size:11px;font-family:Cantarell;fill:none;stroke:#000000;stroke-width:1;stroke-linecap:square;stroke-linejoin:bevel;stroke-opacity:1" />
    <g
       transform="matrix(2.74762,0,0,-2.74762,442.119,98.6667)"
       font-size="11"
       font-weight="400"
       font-style="normal"
       id="g131"
       style="font-style:normal;font-weight:400;font-size:11px;font-family:Cantarell;fill:none;stroke:#000000;stroke-width:1;stroke-linecap:square;stroke-linejoin:bevel;stroke-opacity:1" />
    <g
       stroke-miterlimit="2"
       transform="matrix(2.74762,0,0,2.74762,442.119,38.219)"
       font-size="11"
       font-weight="400"
       font-style="normal"
       id="g135"
       style="font-style:normal;font-weight:400;font-size:11px;font-family:Cantarell;fill:url(#radialGradient191);stroke:#2e3436;stroke-width:2.83465004;stroke-linecap:square;stroke-linejoin:miter;stroke-miterlimit:2;stroke-dasharray:2.83465, 5.66929;stroke-dashoffset:0;stroke-opacity:1">
      <path
         d="m 1,11 c 0,6.0751 -5.37258,11 -12,11 -6.6274,0 -12,-4.9249 -12,-11 0,-6.07513 5.3726,-11 12,-11 6.62742,0 12,4.92487 12,11"
         id="path133"
         style="vector-effect:non-scaling-stroke;fill:url(#radialGradient189);fill-rule:evenodd"
         inkscape:connector-curvature="0" />
    </g>
    <g
       transform="matrix(2.74762,0,0,-2.74762,442.119,98.6667)"
       font-size="11"
       font-weight="400"
       font-style="normal"
       id="g137"
       style="font-style:normal;font-weight:400;font-size:11px;font-family:Cantarell;fill:none;stroke:#000000;stroke-width:1;stroke-linecap:square;stroke-linejoin:bevel;stroke-opacity:1" />
    <g
       transform="matrix(2.74762,0,0,-2.74762,530.043,131.638)"
       font-size="11"
       font-weight="400"
       font-style="normal"
       id="g139"
       style="font-style:normal;font-weight:400;font-size:11px;font-family:Cantarell;fill:none;stroke:#000000;stroke-width:1;stroke-linecap:square;stroke-linejoin:bevel;stroke-opacity:1" />
    <g
       stroke-miterlimit="2"
       transform="matrix(2.74762,0,0,2.74762,530.043,71.1905)"
       font-size="11"
       font-weight="400"
       font-style="normal"
       id="g143"
       style="font-style:normal;font-weight:400;font-size:11px;font-family:Cantarell;fill:url(#radialGradient195);stroke:#2e3436;stroke-width:2.83465004;stroke-linecap:square;stroke-linejoin:miter;stroke-miterlimit:2;stroke-dasharray:2.83465, 5.66929;stroke-dashoffset:0;stroke-opacity:1">
      <path
         d="m 1,11 c 0,6.0751 -5.37258,11 -12,11 -6.6274,0 -12,-4.9249 -12,-11 0,-6.07513 5.3726,-11 12,-11 6.62742,0 12,4.92487 12,11"
         id="path141"
         style="vector-effect:non-scaling-stroke;fill:url(#radialGradient193);fill-rule:evenodd"
         inkscape:connector-curvature="0" />
    </g>
    <g
       transform="matrix(2.74762,0,0,-2.74762,530.043,131.638)"
       font-size="11"
       font-weight="400"
       font-style="normal"
       id="g145"
       style="font-style:normal;font-weight:400;font-size:11px;font-family:Cantarell;fill:none;stroke:#000000;stroke-width:1;stroke-linecap:square;stroke-linejoin:bevel;stroke-opacity:1" />
    <g
       transform="matrix(2.74762,0,0,-2.74762,414.643,192.086)"
       font-size="11"
       font-weight="400"
       font-style="normal"
       id="g147"
       style="font-style:normal;font-weight:400;font-size:11px;font-family:Cantarell;fill:none;stroke:#000000;stroke-width:1;stroke-linecap:square;stroke-linejoin:bevel;stroke-opacity:1" />
    <g
       stroke-miterlimit="2"
       transform="matrix(2.74762,0,0,2.74762,414.643,131.638)"
       font-size="11"
       font-weight="400"
       font-style="normal"
       id="g151"
       style="font-style:normal;font-weight:400;font-size:11px;font-family:Cantarell;fill:url(#radialGradient199);stroke:#2e3436;stroke-width:2.83465004;stroke-linecap:square;stroke-linejoin:miter;stroke-miterlimit:2;stroke-dasharray:2.83465, 5.66929;stroke-dashoffset:0;stroke-opacity:1">
      <path
         d="m 1,11 c 0,6.0751 -5.37258,11 -12,11 -6.6274,0 -12,-4.9249 -12,-11 0,-6.07513 5.3726,-11 12,-11 6.62742,0 12,4.92487 12,11"
         id="path149"
         style="vector-effect:non-scaling-stroke;fill:url(#radialGradient197);fill-rule:evenodd"
         inkscape:connector-curvature="0" />
    </g>
    <g
       transform="matrix(2.74762,0,0,-2.74762,414.643,192.086)"
       font-size="11"
       font-weight="400"
       font-style="normal"
       id="g153"
       style="font-style:normal;font-weight:400;font-size:11px;font-family:Cantarell;fill:none;stroke:#000000;stroke-width:1;stroke-linecap:square;stroke-linejoin:bevel;stroke-opacity:1" />
    <g
       transform="translate(-127,1)"
       font-size="11"
       font-weight="400"
       font-style="normal"
       id="g155"
       style="font-style:normal;font-weight:400;font-size:11px;font-family:Cantarell;fill:none;stroke:#000000;stroke-width:1;stroke-linecap:square;stroke-linejoin:bevel;stroke-opacity:1" />
  </g>
</svg>
